Introduction to the FRAS package
…
fars_summarize_years()

fars_map_state()

We will use data from FARS, years 2013-2015, that can be found in the package directory under \dataset folder for create the examples.

Read FARS data files

The function fars_read() provides a way how to read data from a file path provided as an argument. It returns a tibble with loaded data:

filename <- system.file("extdata/accident_2014.csv.bz2", package = "FRAS")
fars_read(filename)

## # A tibble: 30,056 x 50
##    STATE ST_CASE VE_TOTAL VE_FORMS PVH_INVL  PEDS PERNOTMVIT PERMVIT PERSONS
##    <dbl>   <dbl>    <dbl>    <dbl>    <dbl> <dbl>      <dbl>   <dbl>   <dbl>
##  1     1   10001        1        1        0     0          0       2       2
##  2     1   10002        1        1        0     0          0       1       1
##  3     1   10003        2        2        0     0          0       7       7
##  4     1   10004        3        3        0     0          0       5       5
##  5     1   10005        1        1        0     0          0       1       1
##  6     1   10006        1        1        0     0          0       1       1
##  7     1   10007        3        2        1     0          0       2       2
##  8     1   10008        2        2        0     0          0       4       4
##  9     1   10009        3        3        0     0          0       5       5
## 10     1   10010        2        2        0     0          0       6       6
## # ... with 30,046 more rows, and 41 more variables: COUNTY <dbl>, CITY <dbl>,
## #   DAY <dbl>, MONTH <dbl>, YEAR <dbl>, DAY_WEEK <dbl>, HOUR <dbl>,
## #   MINUTE <dbl>, NHS <dbl>, ROAD_FNC <dbl>, ROUTE <dbl>, TWAY_ID <chr>,
## #   TWAY_ID2 <chr>, MILEPT <dbl>, LATITUDE <dbl>, LONGITUD <dbl>, SP_JUR <dbl>,
## #   HARM_EV <dbl>, MAN_COLL <dbl>, RELJCT1 <dbl>, RELJCT2 <dbl>, TYP_INT <dbl>,
## #   WRK_ZONE <dbl>, REL_ROAD <dbl>, LGT_COND <dbl>, WEATHER1 <dbl>,
## #   WEATHER2 <dbl>, WEATHER <dbl>, SCH_BUS <dbl>, RAIL <chr>, NOT_HOUR <dbl>,
## #   NOT_MIN <dbl>, ARR_HOUR <dbl>, ARR_MIN <dbl>, HOSP_HR <dbl>, HOSP_MN <dbl>,
## #   CF1 <dbl>, CF2 <dbl>, CF3 <dbl>, FATALS <dbl>, DRUNK_DR <dbl>
…
